FIP606 - Transformar dados
…
#cria um novo conjunto, entra no mofo, então
mofo2 <- mofo |> 
  #cria a variável scl2, que é igual ao logarítimo (log) do número de escleródios (scl)
  #mutate(scl2 = log(scl))
#cria a variável scl2, que é igual a raíz quadrada (sqrt) do número de escleródios (scl)
  mutate(scl2 = sqrt(scl))
mofo2

# A tibble: 52 × 6
   study treat   inc   scl   yld  scl2
   <dbl> <dbl> <dbl> <dbl> <dbl> <dbl>
 1     1     1    76  2194  2265  46.8
 2     1     2    53  1663  2618  40.8
 3     1     3    42  1313  2554  36.2
 4     1     4    37  1177  2632  34.3
 5     1     5    29   753  2820  27.4
 6     1     6    42  1343  2799  36.6
 7     1     7    55  1519  2503  39.0
 8     1     8    40   516  2967  22.7
 9     1     9    26   643  2965  25.4
10     1    10    18   400  3088  20  
# ℹ 42 more rows
…
