FIP 606 - aula10
…
shapiro.test(aov1$residuals)

    Shapiro-Wilk normality test

data:  aov1$residuals
W = 0.95101, p-value = 0.07022

# criando o objeto insects
insects <- tbl_df(InsectSprays) |> 
  select(spray, count)
insects

# A tibble: 72 × 2
   spray count
   <fct> <dbl>
 1 A        10
 2 A         7
 3 A        20
 4 A        14
 5 A        14
 6 A        12
 7 A        10
 8 A        23
 9 A        17
10 A        20
# ℹ 62 more rows
…
