FIP606 - Transformação Box Cox
…
Confidence level used: 0.95 
significance level used: alpha = 0.05 
NOTE: If two or more means share the same grouping symbol,
      then we cannot show them to be different.
      But we also did not show them to be the same. 

# usar boxcox
library(MASS)

# criando o objeto insects
insects <- tibble::as_tibble(InsectSprays)|> 
  dplyr::select(spray, count)
insects

# A tibble: 72 × 2
   spray count
   <fct> <dbl>
 1 A        10
 2 A         7
 3 A        20
 4 A        14
 5 A        14
 6 A        12
 7 A        10
 8 A        23
 9 A        17
10 A        20
# ℹ 62 more rows
…
